{
    "fluentMethods": true,
    "relationships": [
        {
            "relationshipType": "many-to-many",
            "relationshipName": "dicaRegistration",
            "otherEntityName": "rnvPlan",
            "ownerSide": false,
            "otherEntityRelationshipName": "dicaRegistrations"
        }
    ],
    "fields": [
        {
            "fieldName": "dicaRegistration",
            "fieldType": "DicaRegistration",
            "fieldValues": "DLCA"
        }
    ],
    "changelogDate": "20170601131339",
    "entityTableName": "dica_registration_entity",
    "dto": "no",
    "pagination": "pagination",
    "service": "no",
    "microserviceName": "dcaservice"
}